%YAML 1.1
%TAG !u! tag:unity3d.com,2011:
--- !u!687078895 &4343727234628468602
SpriteAtlas:
  m_ObjectHideFlags: 0
  m_PrefabParentObject: {fileID: 0}
  m_PrefabInternal: {fileID: 0}
  m_Name: New Sprite Atlas
  m_EditorData:
    textureSettings:
      anisoLevel: 1
      compressionQuality: 50
      maxTextureSize: 2048
      textureCompression: 0
      colorSpace: 1
      filterMode: 2
      generateMipMaps: 0
      readable: 0
      crunchedCompression: 0
    platformSettings: []
    packingParameters:
      paddingPower: 2
      blockOffset: 1
      allowAlphaSplitting: 0
      enableRotation: 1
      enableTightPacking: 1
    packedHash:
      serializedVersion: 2
      Hash: fb68af6afe4d4729bee5b41e1b389eb0
    variantMultiplier: 1
    bindAsDefault: 1
    finalFormat: 4
    hashString: fb68af6afe4d4729bee5b41e1b389eb0
    totalSpriteSurfaceArea: 2560
    packables:
    - {fileID: 21300008, guid: c03876332ca5f47c9aeeadb7700c99fa, type: 3}
    - {fileID: 21300002, guid: 536044d3019444f9b998133b4d9a5c82, type: 3}
    packedSpriteRenderDataKeys:
    - c03876332ca5f47c9aeeadb7700c99fa: 21300008
    - 536044d3019444f9b998133b4d9a5c82: 21300002
  m_MasterAtlas: {fileID: 0}
  m_PackedSprites:
  - {fileID: 21300008, guid: c03876332ca5f47c9aeeadb7700c99fa, type: 3}
  - {fileID: 21300002, guid: 536044d3019444f9b998133b4d9a5c82, type: 3}
  m_PackedSpriteNamesToIndex:
  - Spaceship_4
  - Bullet_1
  m_Tag: New Sprite Atlas
  m_IsVariant: 0
