%YAML 1.1
%TAG !u! tag:unity3d.com,2011:
--- !u!1 &127296
GameObject:
  m_ObjectHideFlags: 0
  m_PrefabParentObject: {fileID: 0}
  m_PrefabInternal: {fileID: 100100000}
  serializedVersion: 5
  m_Component:
  - component: {fileID: 485208}
  - component: {fileID: 11419692}
  - component: {fileID: 21228838}
  m_Layer: 0
  m_Name: Line Path
  m_TagString: Untagged
  m_Icon: {fileID: 0}
  m_NavMeshLayer: 0
  m_StaticEditorFlags: 0
  m_IsActive: 1
--- !u!4 &485208
Transform:
  m_ObjectHideFlags: 1
  m_PrefabParentObject: {fileID: 0}
  m_PrefabInternal: {fileID: 100100000}
  m_GameObject: {fileID: 127296}
  m_LocalRotation: {x: 0, y: 0, z: 0, w: 1}
  m_LocalPosition: {x: 0, y: 0, z: 0}
  m_LocalScale: {x: 2, y: 2, z: 1}
  m_Children: []
  m_Father: {fileID: 0}
  m_RootOrder: 0
  m_LocalEulerAnglesHint: {x: 0, y: 0, z: 0}
--- !u!114 &11419692
MonoBehaviour:
  m_ObjectHideFlags: 1
  m_PrefabParentObject: {fileID: 0}
  m_PrefabInternal: {fileID: 100100000}
  m_GameObject: {fileID: 127296}
  m_Enabled: 1
  m_EditorHideFlags: 0
  m_Script: {fileID: 11500000, guid: 409a53c2fc720400bb482962c5563548, type: 3}
  m_Name: 
  m_EditorClassIdentifier: 
  settings:
    _blur: 0
    _endAngle: 360
    _fillColor: {r: 0.5471453, g: 0.8088235, b: 0.58143425, a: 1}
    _fillColor2: {r: 0.94509804, g: 0.76862746, b: 0.05882353, a: 1}
    _fillOffset: {x: 0, y: 0}
    _fillPathLoops: 0
    _fillRotation: 0
    _fillScale: {x: 1, y: 1}
    _fillTexture: {fileID: 0}
    _fillType: 2
    _gradientAxis: 0
    _gradientStart: 0
    _gradientType: 0
    _gridSize: 0.2
    _innerCutout: {x: 0, y: 0}
    _invertArc: 0
    _lineSize: 0.05
    _obsoleteNumSides: -1
    _outlineColor: {r: 1, g: 1, b: 1, a: 1}
    _outlineSize: 0
    _pathSegments:
    - p0: {x: -0.37, y: -0.37, z: 0}
      p1: {x: -0.24000001, y: -0.08500001, z: 0}
      p2: {x: -0.110000014, y: 0.19999999, z: 0}
    - p0: {x: -0.110000014, y: 0.19999999, z: 0}
      p1: {x: 0.00999999, y: 0.0000000018626451, z: 0}
      p2: {x: 0.13, y: -0.19999999, z: 0}
    - p0: {x: 0.37, y: 0.37, z: 0}
      p1: {x: 0.25, y: 0.08500001, z: 0}
      p2: {x: 0.13, y: -0.19999999, z: 0}
    _pathThickness: 0.3
    _polygonPreset: 3
    _polyVertices:
    - {x: -0.000000021855694, y: 0.5}
    - {x: -0.4755283, y: 0.1545084}
    - {x: -0.29389253, y: -0.40450856}
    - {x: 0.29389274, y: -0.4045084}
    - {x: 0.4755282, y: 0.15450864}
    _roundness: 0
    _roundnessBottomLeft: 0
    _roundnessBottomRight: 0
    _roundnessPerCorner: 0
    _roundnessTopLeft: 0
    _roundnessTopRight: 0
    _shapeType: 4
    _startAngle: 0
    _triangleOffset: 0.5
    _usePolygonMap: 0
  wasConverted: 0
  preConvertedScale: {x: 0, y: 0, z: 0}
--- !u!212 &21228838
SpriteRenderer:
  m_ObjectHideFlags: 1
  m_PrefabParentObject: {fileID: 0}
  m_PrefabInternal: {fileID: 100100000}
  m_GameObject: {fileID: 127296}
  m_Enabled: 1
  m_CastShadows: 0
  m_ReceiveShadows: 0
  m_MotionVectors: 1
  m_LightProbeUsage: 0
  m_ReflectionProbeUsage: 0
  m_Materials:
  - {fileID: 0}
  m_StaticBatchInfo:
    firstSubMesh: 0
    subMeshCount: 0
  m_StaticBatchRoot: {fileID: 0}
  m_ProbeAnchor: {fileID: 0}
  m_LightProbeVolumeOverride: {fileID: 0}
  m_ScaleInLightmap: 1
  m_PreserveUVs: 0
  m_IgnoreNormalsForChartDetection: 0
  m_ImportantGI: 0
  m_SelectedEditorRenderState: 0
  m_MinimumChartSize: 4
  m_AutoUVMaxDistance: 0.5
  m_AutoUVMaxAngle: 89
  m_LightmapParameters: {fileID: 0}
  m_SortingLayerID: 0
  m_SortingLayer: 0
  m_SortingOrder: 0
  m_Sprite: {fileID: 21300000, guid: c3c34e396a46f4439925b24e67779a5d, type: 3}
  m_Color: {r: 1, g: 1, b: 1, a: 1}
  m_FlipX: 0
  m_FlipY: 0
  m_DrawMode: 0
  m_Size: {x: 1, y: 1}
  m_AdaptiveModeThreshold: 0.5
  m_SpriteTileMode: 0
  m_WasSpriteAssigned: 1
  m_MaskInteraction: 0
--- !u!1001 &100100000
Prefab:
  m_ObjectHideFlags: 1
  serializedVersion: 2
  m_Modification:
    m_TransformParent: {fileID: 0}
    m_Modifications: []
    m_RemovedComponents: []
  m_ParentPrefab: {fileID: 0}
  m_RootGameObject: {fileID: 127296}
  m_IsPrefabParent: 1
